{
    "securityResourceId": "245b6c0c-efd2-485d-bf56-229f32b88fcb",
    "path": "componentTemplates\/04c0c2a2-6009-495d-b89a-39c69d135bb5",
    "name": "frontend",
    "description": "Update Web UI",
    "ignoreQualifiers": 0,
    "componentType": "STANDARD",
    "tags": [{
        "id": "adf44193-1d87-449f-8d77-2d1f04059492",
        "name": "OpenShift",
        "color": "#00B2EF",
        "description": "",
        "objectType": "Component"
    }],
    "sourceConfigPluginName": "Docker",
    "active": true,
    "sourceConfigProperties": [
        {
            "name": "allowInsecure",
            "value": "true",
            "description": "",
            "secure": false
        },
        {
            "name": "dockerRegistryAPIKey",
            "value": "",
            "description": "",
            "secure": true
        },
        {
            "name": "dockerRegistryName",
            "value": "dockerreg.conygre.com:5000",
            "description": "",
            "secure": false
        },
        {
            "name": "dockerRegistryPassword",
            "value": "",
            "description": "",
            "secure": true
        },
        {
            "name": "dockerRegistryUsername",
            "description": "",
            "secure": false
        },
        {
            "name": "namingConvention",
            "value": "tag_only",
            "description": "",
            "secure": false
        },
        {
            "name": "registryType",
            "value": "false",
            "description": "",
            "secure": false
        }
    ],
    "envPropDefs": [
        {
            "name": "DOMAINNAME",
            "label": "DOMAINNAME",
            "pattern": "",
            "type": "TEXT",
            "value": "uat.conygre.com",
            "required": true,
            "description": "OpenShift server to deploy to",
            "placeholder": ""
        },
        {
            "name": "PROJECTNAME",
            "label": "PROJECTNAME",
            "pattern": "",
            "type": "TEXT",
            "required": true,
            "description": "Project Name for this application",
            "placeholder": ""
        },
        {
            "name": "DOCKERREG",
            "label": "Docker Registry",
            "pattern": "",
            "type": "TEXT",
            "value": "dockerreg.conygre.com:5000",
            "required": true,
            "description": "Private Docker Registry and port",
            "placeholder": ""
        },
        {
            "name": "ocuser",
            "label": "OpenShift User",
            "pattern": "",
            "type": "TEXT",
            "value": "admin",
            "required": true,
            "description": "OpenShift Login User",
            "placeholder": ""
        },
        {
            "name": "ocpasswd",
            "label": "OpenShift Password",
            "pattern": "",
            "type": "SECURE",
            "value": "",
            "required": true,
            "description": "OpenShift Login Password",
            "placeholder": ""
        }
    ],
    "resPropDefs": [],
    "propDefs": [],
    "properties": [],
    "processes": [{
        "name": "Update Web UI",
        "description": "",
        "defaultWorkingDir": "${p:resource\/work.dir}\/${p:component.name}",
        "takesVersion": true,
        "inventoryActionType": "ADD",
        "status": "Active",
        "configActionType": "ADD",
        "active": true,
        "path": "componentTemplates\/04c0c2a2-6009-495d-b89a-39c69d135bb5\/processes\/f2550f2b-aa05-4423-933a-379168c403c9",
        "deleted": false,
        "propDefs": [],
        "rootActivity": {
            "edges": [
                {
                    "to": "Deploy Web UI",
                    "type": "ALWAYS",
                    "value": ""
                },
                {
                    "to": "a12065db9a76faa9218e8679e86169",
                    "from": "Deploy Web UI",
                    "type": "SUCCESS",
                    "value": ""
                }
            ],
            "offsets": [
                {
                    "name": "a12065db9a76faa9218e8679e86169",
                    "x": -5,
                    "y": 450,
                    "h": 80,
                    "w": 120
                },
                {
                    "name": "Deploy Web UI",
                    "x": -40,
                    "y": 230,
                    "h": 70,
                    "w": 190
                }
            ],
            "layoutMode": "auto",
            "type": "graph",
            "name": "34ce47f8-9986-4dfe-9c47-363e321fa0d0",
            "children": [
                {
                    "type": "finish",
                    "name": "a12065db9a76faa9218e8679e86169",
                    "children": []
                },
                {
                    "allowFailure": false,
                    "useImpersonation": false,
                    "showHidden": false,
                    "impersonationUseSudo": false,
                    "pluginVersion": 9,
                    "commandName": "Shell",
                    "pluginName": "Shell",
                    "properties": {
                        "directoryOffset": ".",
                        "shellInterpreter": "\/bin\/bash",
                        "scriptBody": "#!\/bin\/bash\n\noc login --insecure-skip-tls-verify=true -u ${p:ocuser} -p ${p:ocpasswd} https:\/\/${p:DOMAINNAME}:8443\n\noc project ${p:PROJECTNAME}\n\noc patch dc\/frontend --patch \"{\\\"spec\\\": {\\\"template\\\": {\\\"spec\\\": {\\\"containers\\\": [{\\\"image\\\": \\\"${p:DOCKERREG}\/${p:PROJECTNAME}\/frontend:${p:version.name}\\\",\\\"name\\\": \\\"${p:PROJECTNAME}\\\",\\\"imagePullPolicy\\\": \\\"Always\\\"}]}}}}\"\n",
                        "runAsDaemon": "false",
                        "outputFile": ""
                    },
                    "type": "plugin",
                    "name": "Deploy Web UI",
                    "children": []
                }
            ]
        }
    }],
    "genericProcesses": [],
    "teamMappings": []
}
