{
    "securityResourceId": "38340005-59b9-4fbe-b805-6c0c1e0e6129",
    "path": "componentTemplates\/524c3aff-cc7b-4f45-b931-939d2a0668d6",
    "name": "mysql",
    "description": "Update Database",
    "ignoreQualifiers": 0,
    "componentType": "STANDARD",
    "tags": [{
        "id": "adf44193-1d87-449f-8d77-2d1f04059492",
        "name": "OpenShift",
        "color": "#00B2EF",
        "description": "",
        "objectType": "Component"
    }],
    "sourceConfigPluginName": "Docker",
    "active": true,
    "sourceConfigProperties": [
        {
            "name": "allowInsecure",
            "value": "true",
            "description": "",
            "secure": false
        },
        {
            "name": "dockerRegistryAPIKey",
            "value": "",
            "description": "",
            "secure": true
        },
        {
            "name": "dockerRegistryName",
            "value": "dockerreg.conygre.com:5000",
            "description": "",
            "secure": false
        },
        {
            "name": "dockerRegistryPassword",
            "value": "",
            "description": "",
            "secure": true
        },
        {
            "name": "dockerRegistryUsername",
            "description": "",
            "secure": false
        },
        {
            "name": "namingConvention",
            "value": "tag_only",
            "description": "",
            "secure": false
        },
        {
            "name": "registryType",
            "value": "false",
            "description": "",
            "secure": false
        }
    ],
    "envPropDefs": [
        {
            "name": "DOMAINNAME",
            "label": "DOMAINNAME",
            "pattern": "",
            "type": "TEXT",
            "value": "uat.conygre.com",
            "required": true,
            "description": "OpenShift Server to deploy to",
            "placeholder": ""
        },
        {
            "name": "PROJECTNAME",
            "label": "PROJECTNAME",
            "pattern": "",
            "type": "TEXT",
            "required": true,
            "description": "Project Name for this application",
            "placeholder": ""
        },
        {
            "name": "DOCKERREG",
            "label": "DOCKER Registry",
            "pattern": "",
            "type": "TEXT",
            "value": "dockerreg.conygre.com:5000",
            "required": true,
            "description": "Private Docker Registry name and port",
            "placeholder": ""
        },
        {
            "name": "ocuser",
            "label": "OpenShift Login",
            "pattern": "",
            "type": "TEXT",
            "value": "admin",
            "required": true,
            "description": "OpenShift Login User",
            "placeholder": ""
        },
        {
            "name": "ocpasswd",
            "label": "OpenShift Password",
            "pattern": "",
            "type": "SECURE",
            "value": "",
            "required": true,
            "description": "OpenShift Login Password",
            "placeholder": ""
        }
    ],
    "resPropDefs": [],
    "propDefs": [],
    "properties": [],
    "processes": [{
        "name": "Update Database",
        "description": "",
        "defaultWorkingDir": "${p:resource\/work.dir}\/${p:component.name}",
        "takesVersion": true,
        "inventoryActionType": "ADD",
        "status": "Active",
        "configActionType": "ADD",
        "active": true,
        "path": "componentTemplates\/524c3aff-cc7b-4f45-b931-939d2a0668d6\/processes\/ef65b962-ae32-4ad9-ba19-9939858dacf2",
        "deleted": false,
        "propDefs": [],
        "rootActivity": {
            "edges": [
                {
                    "to": "75df3a46df89c3deda9fa865d70eb2",
                    "from": "Deploy Database",
                    "type": "SUCCESS",
                    "value": ""
                },
                {
                    "to": "Deploy Database",
                    "type": "ALWAYS",
                    "value": ""
                }
            ],
            "offsets": [
                {
                    "name": "75df3a46df89c3deda9fa865d70eb2",
                    "x": -5,
                    "y": 450,
                    "h": 80,
                    "w": 120
                },
                {
                    "name": "Deploy Database",
                    "x": -50,
                    "y": 230,
                    "h": 70,
                    "w": 210
                }
            ],
            "layoutMode": "auto",
            "type": "graph",
            "name": "bda14dab-559c-4c3a-a43b-a23fc0c528f2",
            "children": [
                {
                    "type": "finish",
                    "name": "75df3a46df89c3deda9fa865d70eb2",
                    "children": []
                },
                {
                    "allowFailure": false,
                    "useImpersonation": false,
                    "showHidden": false,
                    "impersonationUseSudo": false,
                    "pluginVersion": 9,
                    "commandName": "Shell",
                    "pluginName": "Shell",
                    "properties": {
                        "directoryOffset": ".",
                        "shellInterpreter": "\/bin\/bash",
                        "scriptBody": "#!\/bin\/bash\n\noc login --insecure-skip-tls-verify=true -u ${p:ocuser} -p ${p:ocpasswd} https:\/\/${p:DOMAINNAME}:8443\n\noc project ${p:PROJECTNAME}\n\noc patch dc\/mysql --patch \"{\\\"spec\\\": {\\\"template\\\": {\\\"spec\\\": {\\\"containers\\\": [{\\\"image\\\": \\\"${p:DOCKERREG}\/${p:PROJECTNAME}\/mysql:${p:version.name}\\\",\\\"name\\\": \\\"${p:PROJECTNAME}\\\",\\\"imagePullPolicy\\\": \\\"Always\\\"}]}}}}\"\n",
                        "runAsDaemon": "false",
                        "outputFile": ""
                    },
                    "type": "plugin",
                    "name": "Deploy Database",
                    "children": []
                }
            ]
        }
    }],
    "genericProcesses": [],
    "teamMappings": []
}
